{ "compressionlevel":-1,
 "height":200,
 "infinite":true,
 "layers":[
        {
         "chunks":[
                {
                 "data":[154, 155, 154, 155, 154, 155, 154, 155, 154, 155, 154, 155, 154, 155, 154, 155, 174, 175, 174, 175, 174, 175, 174, 175, 174, 175, 174, 175, 174, 175, 174, 175, 154, 155, 154, 155, 154, 155, 154, 155, 154, 155, 154, 155, 154, 155, 154, 155, 174, 175, 174, 175, 174, 175, 174, 175, 174, 175, 174, 175, 174, 175, 174, 175, 154, 155, 154, 155, 154, 155, 154, 155, 154, 155, 154, 155, 154, 155, 154, 155, 174, 175, 174, 175, 174, 175, 174, 175, 174, 175, 174, 175, 174, 175, 174, 175, 154, 155, 154, 155, 154, 155, 154, 155, 154, 155, 154, 155, 154, 155, 154, 155, 174, 175, 174, 175, 174, 175, 174, 175, 174, 175, 174, 175, 174, 175, 174, 175, 154, 155, 154, 155, 154, 155, 154, 155, 154, 155, 154, 155, 154, 155, 154, 155, 174, 175, 174, 175, 174, 175, 174, 175, 174, 175, 174, 175, 174, 175, 174, 175, 154, 155, 154, 155, 154, 155, 154, 155, 154, 155, 154, 155, 154, 155, 154, 155, 174, 175, 174, 175, 174, 175, 174, 175, 174, 175, 174, 175, 174, 175, 174, 175, 154, 155, 154, 155, 154, 155, 154, 155, 154, 155, 154, 155, 154, 155, 154, 155, 174, 175, 174, 175, 174, 175, 174, 175, 174, 175, 174, 175, 174, 175, 174, 175, 154, 155, 154, 155, 154, 155, 154, 155, 154, 155, 154, 155, 154, 155, 154, 155, 174, 175, 174, 175, 174, 175, 174, 175, 174, 175, 174, 175, 174, 175, 174, 175],
                 "height":16,
                 "width":16,
                 "x":-16,
                 "y":-16
                }, 
                {
                 "data":[154, 155, 154, 155, 154, 155, 154, 155, 154, 155, 154, 155, 154, 155, 154, 155, 174, 175, 174, 175, 174, 175, 174, 175, 174, 175, 174, 175, 174, 175, 174, 175, 154, 155, 154, 155, 154, 155, 154, 155, 154, 155, 154, 155, 154, 155, 154, 155, 174, 175, 174, 175, 174, 175, 174, 175, 174, 175, 174, 175, 174, 175, 174, 175, 154, 155, 154, 155, 154, 155, 154, 155, 154, 155, 154, 155, 154, 155, 154, 155, 174, 175, 174, 175, 174, 175, 174, 175, 174, 175, 174, 175, 174, 175, 174, 175, 154, 155, 154, 155, 154, 155, 154, 155, 154, 155, 154, 155, 154, 155, 154, 155, 174, 175, 174, 175, 174, 175, 174, 175, 174, 175, 174, 175, 174, 175, 174, 175, 154, 155, 154, 155, 154, 155, 154, 155, 154, 155, 154, 155, 154, 155, 154, 155, 174, 175, 174, 175, 174, 175, 174, 175, 174, 175, 174, 175, 174, 175, 174, 175, 154, 155, 154, 155, 154, 155, 154, 155, 154, 155, 154, 155, 154, 155, 154, 155, 174, 175, 174, 175, 174, 175, 174, 175, 174, 175, 174, 175, 174, 175, 174, 175, 154, 155, 154, 155, 154, 155, 154, 155, 154, 155, 154, 155, 154, 155, 154, 155, 174, 175, 174, 175, 174, 175, 174, 175, 174, 175, 174, 175, 174, 175, 174, 175, 154, 155, 154, 155, 154, 155, 154, 155, 154, 155, 154, 155, 154, 155, 154, 155, 174, 175, 174, 175, 174, 175, 174, 175, 174, 175, 174, 175, 174, 175, 174, 175],
                 "height":16,
                 "width":16,
                 "x":0,
                 "y":-16
                }, 
                {
                 "data":[154, 155, 154, 155, 154, 155, 154, 155, 154, 155, 154, 155, 154, 155, 154, 155, 174, 175, 174, 175, 174, 175, 174, 175, 174, 175, 174, 175, 174, 175, 174, 175, 154, 155, 154, 155, 154, 155, 154, 155, 154, 155, 154, 155, 154, 155, 154, 155, 174, 175, 174, 175, 174, 175, 174, 175, 174, 175, 174, 175, 174, 175, 174, 175, 154, 155, 154, 155, 154, 155, 154, 155, 154, 155, 154, 155, 154, 155, 154, 155, 174, 175, 174, 175, 174, 175, 174, 175, 174, 175, 174, 175, 174, 175, 174, 175, 154, 155, 154, 155, 154, 155, 154, 155, 154, 155, 154, 155, 154, 155, 154, 155, 174, 175, 174, 175, 174, 175, 174, 175, 174, 175, 174, 175, 174, 175, 174, 175, 154, 155, 154, 155, 154, 155, 154, 155, 154, 155, 154, 155, 154, 155, 154, 155, 174, 175, 174, 175, 174, 175, 174, 175, 174, 175, 174, 175, 174, 175, 174, 175, 154, 155, 154, 155, 154, 155, 154, 155, 154, 155, 154, 155, 154, 155, 154, 155, 174, 175, 174, 175, 174, 175, 174, 175, 174, 175, 174, 175, 174, 175, 174, 175, 154, 155, 154, 155, 154, 155, 154, 155, 154, 155, 154, 155, 154, 155, 154, 155, 174, 175, 174, 175, 174, 175, 174, 175, 174, 175, 174, 175, 174, 175, 174, 175, 154, 155, 158, 155, 154, 155, 154, 155, 154, 155, 154, 155, 154, 155, 154, 155, 174, 175, 174, 175, 174, 175, 174, 175, 174, 175, 174, 175, 174, 175, 174, 175],
                 "height":16,
                 "width":16,
                 "x":16,
                 "y":-16
                }, 
                {
                 "data":[154, 155, 154, 155, 154, 155, 154, 155, 154, 155, 154, 155, 154, 155, 154, 155, 174, 175, 174, 175, 174, 175, 174, 175, 174, 175, 174, 175, 174, 175, 174, 175, 154, 155, 154, 155, 154, 155, 154, 155, 154, 155, 154, 155, 154, 155, 154, 155, 174, 175, 174, 175, 174, 175, 174, 175, 174, 175, 174, 175, 174, 175, 174, 175, 154, 155, 154, 155, 154, 155, 154, 155, 154, 155, 154, 155, 154, 155, 154, 155, 174, 175, 174, 175, 174, 175, 174, 175, 174, 175, 174, 175, 174, 175, 174, 175, 154, 155, 154, 155, 154, 155, 154, 155, 154, 155, 154, 155, 154, 155, 154, 155, 174, 175, 174, 175, 174, 175, 174, 175, 174, 175, 174, 175, 174, 175, 174, 175, 154, 155, 154, 155, 154, 155, 154, 155, 154, 155, 154, 155, 154, 155, 154, 155, 174, 175, 174, 175, 174, 175, 174, 175, 174, 175, 174, 175, 174, 175, 174, 175, 154, 155, 154, 155, 154, 155, 154, 155, 154, 155, 154, 155, 154, 155, 154, 155, 174, 175, 174, 175, 174, 175, 174, 175, 174, 175, 174, 175, 174, 175, 174, 175, 154, 155, 154, 155, 154, 155, 154, 155, 154, 155, 154, 155, 154, 155, 154, 155, 174, 175, 174, 175, 174, 175, 174, 175, 174, 175, 174, 175, 174, 175, 174, 175, 154, 155, 154, 155, 154, 155, 154, 155, 154, 155, 154, 155, 154, 155, 154, 155, 174, 175, 174, 175, 174, 175, 174, 175, 174, 175, 174, 175, 174, 175, 174, 175],
                 "height":16,
                 "width":16,
                 "x":32,
                 "y":-16
                }, 
                {
                 "data":[154, 155, 154, 155, 154, 155, 154, 0, 0, 0, 0, 0, 0, 0, 0, 0, 174, 175, 174, 175, 174, 175, 174, 0, 0, 0, 0, 0, 0, 0, 0, 0, 154, 155, 154, 155, 154, 155, 154, 0, 0, 0, 0, 0, 0, 0, 0, 0, 174, 175, 174, 175, 174, 175, 174, 0, 0, 0, 0, 0, 0, 0, 0, 0, 154, 155, 154, 155, 154, 155, 154, 0, 0, 0, 0, 0, 0, 0, 0, 0, 174, 175, 174, 175, 174, 175, 174, 0, 0, 0, 0, 0, 0, 0, 0, 0, 154, 155, 154, 155, 154, 155, 154, 0, 0, 0, 0, 0, 0, 0, 0, 0, 174, 175, 174, 175, 174, 175, 174, 0, 0, 0, 0, 0, 0, 0, 0, 0, 154, 155, 154, 155, 154, 155, 154, 0, 0, 0, 0, 0, 0, 0, 0, 0, 174, 175, 174, 175, 174, 175, 174, 0, 0, 0, 0, 0, 0, 0, 0, 0, 154, 155, 154, 155, 154, 155, 154, 0, 0, 0, 0, 0, 0, 0, 0, 0, 174, 175, 174, 175, 174, 175, 174, 0, 0, 0, 0, 0, 0, 0, 0, 0, 154, 155, 154, 155, 154, 155, 154, 0, 0, 0, 0, 0, 0, 0, 0, 0, 174, 175, 174, 175, 174, 175, 174, 0, 0, 0, 0, 0, 0, 0, 0, 0, 154, 155, 154, 155, 154, 155, 154, 0, 0, 0, 0, 0, 0, 0, 0, 0, 174, 175, 174, 175, 174, 175, 174, 0, 0, 0, 0, 0, 0, 0, 0, 0],
                 "height":16,
                 "width":16,
                 "x":48,
                 "y":-16
                }, 
                {
                 "data":[154, 155, 154, 155, 154, 155, 154, 155, 154, 155, 154, 155, 154, 155, 154, 155, 174, 175, 174, 175, 174, 175, 174, 175, 174, 175, 174, 175, 174, 175, 174, 175, 154, 155, 154, 155, 154, 154, 154, 154, 154, 154, 155, 155, 155, 155, 154, 155, 174, 175, 174, 175, 174, 174, 174, 174, 174, 154, 154, 154, 155, 175, 174, 175, 154, 155, 154, 155, 154, 174, 175, 175, 175, 174, 174, 174, 175, 155, 154, 155, 174, 175, 174, 175, 174, 175, 174, 159, 174, 175, 174, 175, 174, 175, 174, 175, 154, 155, 154, 155, 154, 155, 154, 155, 154, 155, 154, 155, 154, 155, 154, 155, 174, 175, 174, 175, 174, 175, 174, 175, 174, 175, 174, 175, 174, 175, 174, 175, 154, 155, 154, 155, 154, 155, 154, 155, 154, 155, 159, 155, 154, 155, 154, 155, 174, 175, 174, 175, 174, 175, 174, 175, 174, 175, 174, 175, 174, 175, 174, 175, 154, 155, 154, 155, 154, 155, 154, 155, 154, 155, 154, 155, 154, 155, 154, 155, 174, 175, 174, 175, 174, 175, 174, 175, 174, 175, 174, 175, 174, 175, 174, 175, 154, 155, 154, 155, 154, 155, 154, 155, 154, 155, 154, 155, 154, 159, 154, 155, 174, 175, 174, 175, 174, 175, 174, 175, 174, 175, 174, 175, 174, 175, 174, 175, 154, 155, 154, 155, 154, 155, 154, 155, 154, 155, 154, 155, 154, 155, 154, 155, 174, 175, 174, 175, 174, 175, 174, 175, 174, 159, 174, 175, 174, 175, 174, 175],
                 "height":16,
                 "width":16,
                 "x":-16,
                 "y":0
                }, 
                {
                 "data":[154, 155, 154, 155, 154, 155, 154, 155, 154, 155, 154, 155, 154, 155, 154, 155, 174, 175, 174, 175, 174, 175, 174, 175, 174, 175, 174, 175, 174, 175, 174, 175, 154, 155, 154, 155, 154, 155, 154, 155, 154, 155, 155, 155, 154, 155, 154, 155, 174, 175, 174, 175, 174, 175, 174, 175, 154, 154, 155, 175, 174, 175, 174, 175, 154, 155, 154, 155, 154, 155, 154, 155, 154, 155, 155, 155, 154, 155, 154, 155, 174, 175, 174, 175, 174, 175, 174, 175, 174, 175, 175, 175, 174, 175, 174, 175, 154, 155, 154, 155, 154, 155, 154, 155, 154, 155, 154, 155, 154, 155, 154, 155, 174, 175, 174, 175, 174, 175, 174, 175, 174, 175, 174, 175, 174, 175, 174, 175, 154, 155, 154, 155, 154, 155, 154, 155, 154, 155, 154, 155, 154, 155, 154, 155, 174, 175, 174, 175, 174, 175, 174, 175, 174, 175, 174, 175, 174, 175, 174, 175, 154, 415, 416, 155, 154, 155, 154, 155, 154, 155, 154, 155, 154, 155, 154, 155, 174, 415, 416, 175, 174, 175, 174, 175, 174, 175, 174, 175, 174, 175, 174, 175, 154, 415, 416, 155, 154, 155, 154, 155, 154, 155, 154, 155, 154, 155, 154, 155, 174, 415, 416, 175, 174, 175, 174, 175, 174, 175, 174, 175, 174, 175, 174, 175, 154, 415, 416, 155, 154, 155, 154, 155, 154, 155, 154, 155, 154, 155, 154, 155, 174, 415, 416, 175, 174, 175, 174, 175, 174, 175, 174, 175, 174, 158, 174, 175],
                 "height":16,
                 "width":16,
                 "x":0,
                 "y":0
                }, 
                {
                 "data":[154, 155, 154, 155, 154, 155, 154, 155, 154, 155, 154, 155, 154, 155, 154, 155, 174, 175, 174, 175, 174, 175, 174, 175, 174, 175, 174, 175, 174, 175, 174, 175, 154, 155, 154, 155, 154, 155, 154, 155, 154, 155, 154, 155, 154, 155, 154, 155, 174, 175, 174, 158, 174, 175, 174, 175, 174, 175, 174, 175, 174, 175, 174, 175, 154, 155, 154, 155, 154, 155, 154, 155, 154, 155, 154, 155, 154, 155, 154, 155, 174, 175, 174, 175, 174, 175, 174, 175, 174, 175, 174, 175, 174, 175, 174, 175, 154, 155, 154, 155, 154, 155, 154, 155, 154, 155, 154, 155, 154, 155, 154, 155, 174, 175, 174, 175, 174, 175, 174, 175, 174, 175, 174, 175, 174, 175, 174, 175, 154, 155, 158, 155, 154, 155, 154, 155, 154, 155, 154, 155, 154, 155, 154, 155, 174, 175, 158, 175, 174, 175, 174, 175, 174, 175, 174, 175, 174, 175, 174, 175, 154, 155, 154, 155, 154, 155, 154, 155, 154, 155, 154, 155, 154, 155, 154, 155, 174, 175, 174, 175, 174, 175, 174, 175, 174, 175, 174, 175, 174, 175, 174, 175, 154, 155, 154, 155, 154, 155, 154, 155, 154, 155, 154, 155, 154, 155, 154, 155, 174, 175, 174, 175, 174, 175, 174, 175, 174, 175, 174, 175, 174, 175, 174, 175, 154, 155, 154, 155, 154, 155, 154, 155, 154, 155, 154, 155, 154, 155, 154, 155, 174, 175, 174, 175, 174, 175, 174, 175, 174, 175, 174, 175, 174, 175, 174, 175],
                 "height":16,
                 "width":16,
                 "x":16,
                 "y":0
                }, 
                {
                 "data":[154, 155, 154, 155, 154, 155, 154, 155, 154, 155, 154, 155, 154, 155, 154, 155, 174, 175, 174, 175, 174, 175, 174, 175, 174, 175, 174, 175, 174, 175, 174, 175, 154, 155, 154, 155, 154, 155, 154, 155, 154, 155, 154, 155, 154, 155, 154, 155, 174, 175, 174, 175, 174, 175, 174, 175, 174, 175, 174, 175, 174, 175, 174, 175, 154, 155, 154, 155, 154, 155, 154, 155, 154, 155, 154, 155, 154, 155, 154, 155, 174, 175, 174, 175, 174, 175, 174, 175, 174, 175, 174, 175, 174, 175, 174, 175, 154, 155, 154, 155, 154, 155, 154, 155, 154, 155, 154, 155, 154, 155, 154, 155, 174, 175, 174, 175, 174, 175, 174, 175, 174, 175, 174, 175, 174, 175, 174, 175, 154, 155, 154, 155, 154, 155, 154, 155, 154, 155, 154, 155, 154, 155, 154, 155, 174, 175, 174, 175, 174, 175, 174, 175, 174, 175, 174, 175, 174, 175, 174, 175, 154, 155, 154, 155, 154, 155, 154, 155, 154, 155, 154, 155, 154, 155, 154, 155, 174, 175, 174, 175, 174, 175, 174, 175, 174, 175, 174, 175, 174, 175, 174, 175, 154, 155, 154, 155, 154, 155, 154, 155, 154, 155, 154, 155, 154, 155, 154, 155, 174, 175, 174, 175, 174, 175, 174, 175, 174, 175, 174, 175, 174, 175, 174, 175, 154, 155, 154, 155, 154, 155, 154, 155, 154, 155, 154, 155, 154, 155, 154, 155, 174, 175, 174, 175, 174, 175, 174, 175, 174, 175, 174, 175, 174, 175, 174, 175],
                 "height":16,
                 "width":16,
                 "x":32,
                 "y":0
                }, 
                {
                 "data":[154, 155, 154, 155, 154, 155, 154, 0, 0, 0, 0, 0, 0, 0, 0, 0, 174, 175, 174, 175, 174, 175, 174, 0, 0, 0, 0, 0, 0, 0, 0, 0, 154, 155, 154, 155, 154, 155, 154, 0, 0, 0, 0, 0, 0, 0, 0, 0, 174, 175, 174, 175, 174, 175, 174, 0, 0, 0, 0, 0, 0, 0, 0, 0, 154, 155, 154, 155, 154, 155, 154, 0, 0, 0, 0, 0, 0, 0, 0, 0, 174, 175, 174, 175, 174, 175, 174, 0, 0, 0, 0, 0, 0, 0, 0, 0, 154, 155, 154, 155, 154, 155, 154, 0, 0, 0, 0, 0, 0, 0, 0, 0, 174, 175, 174, 175, 174, 175, 174, 0, 0, 0, 0, 0, 0, 0, 0, 0, 154, 155, 154, 155, 154, 155, 154, 0, 0, 0, 0, 0, 0, 0, 0, 0, 174, 175, 174, 175, 174, 175, 174, 0, 0, 0, 0, 0, 0, 0, 0, 0, 154, 155, 154, 155, 154, 155, 154, 0, 0, 0, 0, 0, 0, 0, 0, 0, 174, 175, 174, 175, 174, 175, 174, 0, 0, 0, 0, 0, 0, 0, 0, 0, 154, 155, 154, 155, 154, 155, 154, 0, 0, 0, 0, 0, 0, 0, 0, 0, 174, 175, 174, 175, 174, 175, 174, 0, 0, 0, 0, 0, 0, 0, 0, 0, 154, 155, 154, 155, 154, 155, 154, 0, 0, 0, 0, 0, 0, 0, 0, 0, 174, 175, 174, 175, 174, 175, 174, 0, 0, 0, 0, 0, 0, 0, 0, 0],
                 "height":16,
                 "width":16,
                 "x":48,
                 "y":0
                }, 
                {
                 "data":[154, 155, 154, 155, 154, 155, 154, 155, 154, 155, 154, 155, 154, 155, 154, 155, 174, 175, 174, 158, 174, 175, 174, 175, 174, 175, 174, 175, 174, 175, 174, 175, 154, 155, 154, 155, 154, 155, 154, 155, 154, 155, 154, 155, 154, 155, 154, 155, 174, 175, 174, 175, 174, 175, 174, 175, 174, 175, 174, 175, 174, 175, 174, 175, 154, 155, 154, 155, 154, 155, 154, 155, 154, 155, 154, 155, 154, 155, 154, 155, 174, 175, 174, 175, 174, 175, 159, 175, 174, 175, 174, 175, 158, 175, 174, 175, 154, 155, 154, 155, 154, 155, 154, 155, 154, 155, 154, 155, 154, 155, 154, 155, 174, 175, 174, 175, 174, 175, 174, 175, 174, 175, 174, 175, 174, 175, 174, 175, 154, 155, 154, 155, 154, 155, 154, 155, 158, 155, 154, 155, 154, 155, 154, 155, 174, 175, 174, 175, 174, 175, 174, 175, 174, 175, 174, 175, 174, 175, 174, 175, 154, 155, 154, 155, 154, 155, 154, 155, 154, 155, 159, 155, 154, 155, 154, 155, 174, 175, 174, 175, 174, 175, 174, 175, 174, 175, 174, 175, 174, 175, 174, 175, 154, 155, 154, 155, 154, 155, 154, 158, 154, 155, 154, 155, 154, 155, 154, 155, 174, 175, 174, 175, 174, 175, 174, 175, 174, 175, 174, 175, 174, 175, 174, 175, 154, 155, 154, 155, 154, 155, 154, 155, 154, 155, 154, 155, 154, 155, 154, 155, 174, 175, 174, 175, 174, 175, 174, 175, 174, 175, 174, 175, 174, 175, 174, 175],
                 "height":16,
                 "width":16,
                 "x":-16,
                 "y":16
                }, 
                {
                 "data":[154, 415, 416, 155, 154, 155, 154, 155, 154, 155, 154, 155, 154, 155, 154, 155, 174, 415, 416, 175, 174, 175, 158, 175, 174, 175, 174, 175, 174, 175, 154, 155, 154, 415, 416, 155, 154, 155, 154, 155, 154, 155, 154, 155, 154, 155, 154, 155, 174, 415, 416, 175, 174, 175, 174, 175, 174, 175, 174, 175, 174, 175, 154, 155, 154, 415, 416, 155, 154, 155, 158, 155, 154, 155, 154, 155, 154, 155, 154, 155, 174, 415, 416, 175, 174, 175, 174, 175, 174, 175, 174, 175, 174, 175, 154, 155, 154, 415, 416, 155, 154, 155, 154, 155, 154, 155, 154, 155, 154, 155, 154, 155, 174, 415, 416, 175, 174, 175, 174, 175, 174, 175, 174, 175, 174, 175, 154, 155, 154, 415, 415, 415, 415, 415, 415, 415, 415, 415, 415, 415, 415, 415, 415, 415, 174, 435, 435, 435, 435, 435, 435, 435, 435, 435, 435, 435, 435, 435, 435, 435, 154, 155, 154, 155, 154, 155, 154, 155, 154, 155, 154, 155, 154, 155, 154, 155, 174, 175, 174, 175, 174, 175, 174, 175, 174, 175, 174, 175, 174, 175, 154, 155, 154, 155, 154, 155, 154, 155, 154, 155, 154, 155, 154, 155, 154, 155, 154, 155, 174, 175, 174, 175, 174, 175, 174, 175, 174, 175, 174, 175, 174, 175, 154, 155, 154, 155, 154, 158, 154, 155, 154, 155, 154, 155, 154, 155, 154, 155, 154, 155, 174, 175, 174, 175, 174, 175, 174, 175, 174, 175, 174, 175, 174, 175, 174, 175],
                 "height":16,
                 "width":16,
                 "x":0,
                 "y":16
                }, 
                {
                 "data":[154, 155, 154, 155, 154, 155, 154, 155, 154, 155, 154, 155, 154, 155, 154, 155, 174, 175, 174, 175, 174, 175, 174, 175, 174, 175, 174, 175, 174, 175, 174, 175, 154, 155, 154, 155, 154, 155, 154, 155, 154, 155, 154, 155, 154, 155, 154, 155, 174, 175, 174, 175, 174, 175, 174, 175, 174, 175, 174, 175, 174, 175, 174, 175, 154, 155, 154, 155, 154, 155, 154, 155, 154, 155, 154, 155, 154, 155, 154, 155, 174, 175, 174, 175, 174, 175, 174, 175, 174, 175, 174, 175, 174, 175, 174, 175, 154, 155, 154, 155, 154, 155, 154, 155, 154, 155, 154, 155, 154, 155, 154, 155, 174, 175, 174, 175, 174, 175, 174, 175, 174, 175, 174, 175, 174, 175, 174, 175, 415, 415, 415, 415, 415, 415, 415, 415, 415, 415, 415, 415, 416, 299, 300, 300, 435, 435, 435, 435, 435, 435, 435, 435, 435, 435, 435, 435, 436, 299, 300, 300, 154, 155, 154, 155, 154, 155, 154, 155, 154, 155, 154, 155, 154, 155, 154, 155, 174, 175, 174, 175, 174, 175, 174, 175, 174, 175, 174, 175, 174, 175, 174, 175, 154, 155, 154, 155, 154, 155, 154, 155, 154, 155, 154, 155, 154, 155, 154, 155, 174, 175, 174, 175, 174, 175, 174, 175, 174, 175, 174, 175, 174, 175, 174, 175, 154, 155, 154, 155, 154, 155, 154, 155, 154, 155, 154, 155, 154, 155, 154, 155, 174, 175, 174, 175, 174, 175, 174, 175, 174, 175, 174, 175, 174, 175, 174, 175],
                 "height":16,
                 "width":16,
                 "x":16,
                 "y":16
                }, 
                {
                 "data":[154, 155, 154, 155, 154, 155, 154, 155, 154, 155, 154, 155, 154, 155, 154, 155, 174, 175, 174, 175, 174, 175, 174, 175, 174, 175, 174, 175, 174, 175, 174, 175, 154, 155, 154, 155, 154, 155, 154, 155, 154, 155, 154, 155, 154, 155, 154, 155, 174, 175, 174, 175, 174, 175, 174, 175, 174, 175, 174, 175, 174, 175, 174, 175, 154, 155, 154, 155, 154, 155, 154, 155, 154, 155, 154, 155, 154, 155, 154, 155, 174, 175, 174, 175, 174, 175, 174, 175, 174, 175, 174, 175, 174, 175, 174, 175, 154, 155, 154, 155, 154, 155, 154, 155, 154, 155, 154, 155, 154, 155, 154, 155, 299, 300, 174, 175, 174, 175, 174, 175, 174, 175, 174, 175, 174, 175, 174, 175, 319, 320, 154, 155, 154, 155, 154, 155, 154, 155, 154, 155, 154, 155, 154, 155, 299, 300, 174, 175, 174, 175, 174, 175, 174, 175, 174, 175, 174, 175, 174, 175, 154, 155, 154, 155, 154, 155, 154, 155, 154, 155, 154, 155, 154, 155, 154, 155, 174, 175, 174, 175, 174, 175, 174, 175, 174, 175, 174, 175, 174, 175, 174, 175, 154, 155, 154, 155, 154, 155, 154, 155, 154, 155, 154, 155, 154, 155, 154, 155, 174, 175, 174, 175, 174, 175, 174, 175, 174, 175, 174, 175, 174, 175, 174, 175, 154, 155, 154, 155, 154, 155, 154, 155, 154, 155, 154, 155, 154, 155, 154, 155, 174, 175, 174, 175, 174, 175, 174, 175, 174, 175, 174, 175, 174, 175, 174, 175],
                 "height":16,
                 "width":16,
                 "x":32,
                 "y":16
                }, 
                {
                 "data":[154, 155, 154, 155, 154, 155, 154, 0, 0, 0, 0, 0, 0, 0, 0, 0, 174, 175, 174, 175, 174, 175, 174, 0, 0, 0, 0, 0, 0, 0, 0, 0, 154, 155, 154, 155, 154, 155, 154, 0, 0, 0, 0, 0, 0, 0, 0, 0, 174, 175, 174, 175, 174, 175, 174, 0, 0, 0, 0, 0, 0, 0, 0, 0, 154, 155, 154, 155, 154, 155, 154, 0, 0, 0, 0, 0, 0, 0, 0, 0, 174, 175, 174, 175, 174, 175, 174, 0, 0, 0, 0, 0, 0, 0, 0, 0, 154, 155, 154, 155, 154, 155, 154, 0, 0, 0, 0, 0, 0, 0, 0, 0, 174, 175, 174, 175, 174, 175, 174, 0, 0, 0, 0, 0, 0, 0, 0, 0, 154, 155, 154, 155, 154, 155, 154, 0, 0, 0, 0, 0, 0, 0, 0, 0, 174, 175, 174, 175, 174, 175, 174, 0, 0, 0, 0, 0, 0, 0, 0, 0, 154, 155, 154, 155, 154, 155, 154, 0, 0, 0, 0, 0, 0, 0, 0, 0, 174, 175, 174, 175, 174, 175, 174, 0, 0, 0, 0, 0, 0, 0, 0, 0, 154, 155, 154, 155, 154, 155, 154, 0, 0, 0, 0, 0, 0, 0, 0, 0, 174, 175, 174, 175, 174, 175, 174, 0, 0, 0, 0, 0, 0, 0, 0, 0, 154, 155, 154, 155, 154, 155, 154, 0, 0, 0, 0, 0, 0, 0, 0, 0, 174, 175, 174, 175, 174, 175, 174, 0, 0, 0, 0, 0, 0, 0, 0, 0],
                 "height":16,
                 "width":16,
                 "x":48,
                 "y":16
                }],
         "height":48,
         "id":1,
         "name":"chao",
         "opacity":1,
         "startx":-16,
         "starty":-16,
         "type":"tilelayer",
         "visible":true,
         "width":80,
         "x":0,
         "y":0
        }, 
        {
         "chunks":[
                {
                 "data":[0, 0, 0, 0, 0, 0, 0, 0, 0, 0, 0, 0, 0, 0, 0, 0, 0, 0, 0, 0, 0, 0, 0, 0, 0, 0, 0, 0, 0, 0, 0, 0, 0, 0, 0, 212, 213, 214, 215, 216, 0, 0, 0, 0, 0, 0, 0, 0, 0, 0, 0, 232, 233, 234, 235, 236, 0, 0, 0, 0, 0, 0, 0, 0, 0, 0, 0, 252, 253, 254, 255, 256, 0, 0, 0, 0, 0, 0, 0, 0, 0, 0, 0, 272, 273, 274, 275, 276, 0, 0, 0, 0, 0, 0, 0, 0, 0, 0, 0, 292, 293, 294, 295, 296, 0, 0, 0, 0, 0, 0, 0, 0, 0, 0, 0, 312, 313, 314, 315, 316, 0, 0, 0, 0, 0, 0, 0, 0, 0, 0, 0, 0, 0, 0, 0, 0, 0, 0, 0, 0, 0, 0, 0, 0, 0, 0, 0, 0, 0, 0, 0, 0, 0, 0, 0, 0, 0, 0, 0, 0, 0, 0, 0, 0, 0, 0, 0, 0, 0, 0, 0, 0, 0, 0, 0, 0, 0, 0, 0, 0, 0, 0, 44, 45, 46, 47, 48, 49, 50, 51, 0, 0, 0, 0, 0, 0, 0, 0, 64, 65, 66, 67, 68, 69, 70, 71, 0, 0, 0, 0, 0, 0, 0, 0, 84, 85, 86, 87, 88, 89, 90, 91, 0, 0, 0, 0, 0, 0, 0, 0, 104, 105, 106, 107, 108, 109, 110, 111, 0, 0, 0, 0, 0, 0, 0, 0, 124, 125, 126, 127, 128, 129, 130, 131, 0, 0],
                 "height":16,
                 "width":16,
                 "x":-16,
                 "y":-16
                }, 
                {
                 "data":[0, 0, 0, 0, 0, 0, 0, 0, 0, 0, 0, 0, 0, 0, 0, 0, 0, 0, 0, 0, 0, 0, 0, 0, 0, 0, 0, 0, 0, 0, 0, 0, 281, 282, 0, 0, 0, 0, 0, 0, 0, 0, 0, 0, 0, 0, 0, 0, 301, 302, 0, 0, 0, 0, 0, 0, 0, 0, 0, 0, 0, 0, 0, 0, 321, 322, 323, 0, 0, 0, 0, 0, 0, 0, 0, 0, 0, 0, 0, 0, 341, 342, 343, 0, 0, 0, 0, 0, 0, 0, 0, 0, 0, 0, 0, 0, 361, 362, 0, 0, 0, 0, 0, 0, 0, 0, 0, 0, 0, 0, 0, 0, 0, 0, 0, 0, 0, 0, 0, 0, 0, 0, 0, 0, 0, 0, 0, 0, 0, 0, 0, 0, 0, 0, 0, 0, 0, 0, 0, 0, 0, 0, 0, 0, 0, 0, 0, 0, 0, 0, 204, 205, 206, 207, 208, 209, 210, 0, 0, 0, 0, 0, 0, 0, 0, 0, 224, 225, 226, 227, 228, 229, 230, 0, 0, 0, 0, 0, 0, 0, 0, 0, 244, 245, 246, 247, 248, 249, 250, 0, 0, 0, 0, 0, 0, 0, 0, 0, 264, 265, 266, 267, 268, 269, 270, 0, 0, 0, 0, 0, 0, 0, 0, 0, 284, 285, 286, 287, 288, 289, 290, 0, 0, 0, 0, 0, 0, 0, 0, 0, 304, 305, 306, 307, 308, 309, 310, 0, 0, 0, 0, 0, 0, 0, 0, 0, 324, 325, 326, 327, 328, 329, 330, 0, 0, 0],
                 "height":16,
                 "width":16,
                 "x":0,
                 "y":-16
                }, 
                {
                 "data":[0, 0, 0, 0, 0, 0, 0, 0, 0, 0, 0, 0, 0, 0, 0, 0, 0, 0, 0, 0, 0, 0, 0, 0, 0, 0, 0, 0, 0, 0, 0, 0, 0, 0, 0, 0, 0, 0, 0, 0, 0, 0, 0, 0, 0, 0, 0, 0, 0, 0, 0, 0, 0, 0, 0, 0, 0, 0, 0, 0, 0, 0, 0, 0, 0, 0, 0, 0, 0, 0, 0, 0, 0, 0, 0, 0, 0, 0, 0, 0, 0, 0, 0, 0, 0, 0, 0, 0, 0, 0, 0, 0, 0, 0, 0, 0, 0, 0, 0, 0, 0, 0, 0, 0, 0, 0, 0, 0, 0, 0, 0, 0, 0, 0, 0, 0, 0, 0, 0, 0, 0, 0, 0, 0, 0, 0, 0, 0, 0, 0, 0, 0, 0, 0, 0, 0, 0, 0, 0, 0, 0, 0, 0, 0, 0, 0, 0, 0, 0, 213, 214, 215, 216, 0, 0, 0, 0, 0, 0, 0, 0, 0, 0, 0, 0, 233, 234, 235, 236, 0, 0, 0, 0, 0, 0, 0, 0, 0, 0, 0, 0, 253, 254, 255, 256, 0, 0, 0, 0, 0, 0, 0, 0, 0, 0, 0, 0, 273, 274, 275, 276, 0, 0, 0, 0, 0, 0, 0, 0, 0, 0, 0, 0, 293, 294, 295, 296, 0, 0, 0, 0, 0, 0, 0, 0, 0, 0, 0, 0, 313, 314, 315, 316, 0, 0, 0, 0, 0, 0, 0, 0, 0, 0, 0, 0, 0, 0, 0, 0, 0, 0, 0, 0, 0, 0, 0],
                 "height":16,
                 "width":16,
                 "x":16,
                 "y":-16
                }, 
                {
                 "data":[0, 0, 0, 0, 0, 0, 0, 0, 0, 0, 0, 0, 0, 0, 0, 0, 0, 0, 0, 0, 0, 0, 0, 0, 0, 0, 0, 0, 0, 0, 0, 0, 0, 0, 0, 0, 0, 0, 0, 0, 0, 0, 0, 0, 0, 0, 0, 0, 0, 0, 0, 0, 0, 0, 0, 0, 0, 0, 0, 0, 0, 0, 0, 0, 0, 0, 0, 0, 0, 0, 0, 0, 0, 0, 0, 0, 0, 0, 0, 0, 0, 0, 0, 0, 0, 0, 0, 0, 0, 0, 0, 0, 0, 0, 0, 0, 0, 0, 0, 0, 0, 0, 0, 0, 0, 0, 0, 0, 0, 0, 0, 0, 0, 0, 0, 0, 0, 0, 0, 0, 0, 0, 0, 0, 0, 0, 0, 0, 0, 0, 0, 0, 0, 0, 0, 0, 0, 0, 0, 0, 0, 0, 0, 0, 0, 0, 0, 0, 0, 0, 0, 0, 0, 0, 0, 0, 0, 0, 0, 0, 0, 0, 0, 0, 0, 0, 0, 0, 0, 0, 0, 0, 0, 0, 0, 0, 0, 0, 0, 0, 0, 0, 0, 0, 0, 0, 0, 0, 0, 0, 0, 0, 0, 0, 0, 0, 0, 0, 0, 0, 0, 0, 0, 0, 0, 0, 0, 0, 0, 0, 0, 0, 0, 213, 214, 215, 216, 0, 0, 0, 0, 0, 0, 0, 0, 0, 0, 0, 0, 233, 234, 235, 236, 0, 0, 0, 0, 0, 0, 0, 0, 0, 0, 0, 0, 253, 254, 255, 256, 0, 0, 0, 0, 0, 213, 214],
                 "height":16,
                 "width":16,
                 "x":32,
                 "y":-16
                }, 
                {
                 "data":[0, 0, 0, 0, 0, 0, 0, 0, 0, 0, 0, 0, 0, 0, 0, 0, 0, 0, 0, 0, 0, 0, 0, 0, 0, 0, 0, 0, 0, 0, 0, 0, 0, 0, 0, 0, 0, 0, 0, 0, 0, 0, 0, 0, 0, 0, 0, 0, 0, 0, 0, 0, 0, 0, 0, 0, 0, 0, 0, 0, 0, 0, 0, 0, 0, 0, 0, 0, 0, 0, 0, 0, 0, 0, 0, 0, 0, 0, 0, 0, 0, 0, 0, 0, 0, 0, 0, 0, 0, 0, 0, 0, 0, 0, 0, 0, 0, 0, 0, 0, 0, 0, 0, 0, 0, 0, 0, 0, 0, 0, 0, 0, 0, 0, 0, 0, 0, 0, 0, 0, 0, 0, 0, 0, 0, 0, 0, 0, 0, 0, 0, 0, 0, 0, 0, 0, 0, 0, 0, 0, 0, 0, 0, 0, 0, 0, 0, 0, 0, 0, 0, 0, 0, 0, 0, 0, 0, 0, 0, 0, 0, 0, 0, 0, 0, 0, 0, 0, 0, 0, 0, 0, 0, 0, 0, 0, 0, 0, 0, 0, 0, 0, 0, 0, 0, 0, 0, 0, 0, 0, 0, 0, 0, 0, 0, 0, 0, 0, 0, 0, 0, 0, 0, 0, 0, 0, 0, 0, 0, 0, 0, 0, 0, 0, 0, 0, 0, 0, 0, 0, 0, 0, 0, 0, 0, 0, 0, 0, 0, 0, 0, 0, 0, 0, 0, 0, 0, 0, 0, 0, 215, 216, 0, 0, 0, 0, 0, 0, 0, 0, 0, 0, 0, 0, 0, 0],
                 "height":16,
                 "width":16,
                 "x":48,
                 "y":-16
                }, 
                {
                 "data":[0, 0, 0, 0, 0, 0, 144, 145, 146, 147, 148, 149, 150, 151, 0, 0, 0, 0, 0, 0, 0, 0, 164, 165, 166, 167, 168, 169, 170, 171, 0, 0, 0, 61, 0, 61, 0, 0, 184, 185, 186, 187, 188, 189, 190, 191, 0, 0, 0, 81, 0, 81, 0, 0, 0, 0, 0, 0, 0, 0, 0, 0, 0, 0, 0, 0, 0, 0, 0, 0, 0, 0, 0, 0, 0, 0, 0, 6, 0, 0, 0, 61, 0, 61, 0, 0, 0, 0, 0, 0, 0, 0, 0, 26, 0, 0, 0, 81, 0, 81, 0, 0, 0, 0, 0, 0, 0, 0, 0, 0, 0, 0, 0, 0, 0, 0, 0, 0, 0, 0, 0, 0, 0, 0, 0, 0, 0, 0, 0, 0, 0, 0, 0, 0, 0, 0, 0, 0, 0, 0, 0, 0, 0, 0, 0, 0, 0, 0, 212, 213, 214, 215, 216, 0, 0, 0, 0, 0, 0, 0, 0, 0, 0, 0, 232, 233, 234, 235, 236, 0, 0, 0, 0, 0, 0, 0, 0, 0, 0, 0, 252, 253, 254, 255, 256, 0, 0, 0, 0, 0, 0, 0, 0, 0, 0, 0, 272, 273, 274, 275, 276, 0, 0, 0, 0, 0, 0, 0, 0, 0, 0, 0, 292, 293, 294, 295, 296, 0, 0, 0, 0, 0, 0, 0, 0, 0, 0, 0, 312, 313, 314, 315, 316, 0, 0, 0, 0, 0, 0, 0, 0, 0, 0, 0, 0, 0, 0, 0, 0, 0, 0, 0, 0, 0, 0, 0],
                 "height":16,
                 "width":16,
                 "x":-16,
                 "y":0
                }, 
                {
                 "data":[0, 0, 0, 0, 0, 0, 344, 345, 346, 347, 348, 349, 350, 0, 0, 0, 0, 0, 0, 0, 0, 0, 364, 365, 366, 367, 368, 369, 370, 0, 0, 0, 0, 0, 0, 0, 0, 0, 384, 385, 386, 387, 388, 389, 213, 214, 215, 216, 0, 0, 0, 0, 0, 0, 0, 0, 0, 0, 0, 0, 233, 234, 235, 236, 0, 0, 0, 0, 0, 0, 0, 0, 0, 0, 0, 0, 253, 254, 255, 256, 0, 0, 0, 0, 0, 0, 0, 0, 0, 0, 0, 0, 273, 274, 275, 276, 0, 0, 0, 0, 0, 0, 0, 0, 0, 0, 0, 0, 293, 294, 295, 296, 0, 0, 0, 0, 0, 0, 0, 0, 212, 213, 214, 215, 313, 314, 315, 316, 0, 0, 0, 0, 0, 0, 0, 0, 232, 233, 234, 235, 236, 0, 0, 0, 0, 0, 0, 0, 0, 0, 0, 0, 252, 253, 254, 255, 256, 0, 0, 0, 0, 0, 0, 0, 0, 0, 0, 0, 272, 273, 274, 275, 276, 0, 0, 0, 0, 0, 0, 0, 0, 0, 0, 0, 292, 293, 294, 295, 296, 0, 0, 0, 0, 0, 0, 0, 0, 0, 0, 0, 312, 313, 314, 315, 316, 0, 0, 0, 0, 0, 0, 0, 0, 0, 0, 0, 0, 0, 0, 0, 0, 0, 0, 0, 0, 0, 0, 0, 0, 0, 0, 0, 0, 0, 0, 0, 0, 0, 0, 0, 0, 0, 0, 0, 0, 0, 0, 0, 0, 0, 0, 213, 214, 215, 216, 0],
                 "height":16,
                 "width":16,
                 "x":0,
                 "y":0
                }, 
                {
                 "data":[0, 0, 0, 0, 0, 0, 0, 0, 0, 0, 0, 0, 0, 0, 0, 0, 0, 0, 0, 0, 0, 0, 0, 0, 0, 0, 0, 0, 0, 0, 0, 0, 0, 0, 0, 0, 0, 0, 0, 0, 0, 0, 0, 0, 0, 213, 214, 215, 0, 0, 0, 0, 0, 0, 0, 0, 0, 0, 0, 0, 0, 233, 234, 235, 0, 0, 0, 0, 0, 0, 0, 0, 0, 0, 0, 0, 0, 253, 254, 255, 0, 0, 0, 0, 0, 0, 0, 0, 0, 0, 0, 0, 0, 273, 274, 275, 0, 0, 0, 0, 0, 0, 0, 0, 0, 0, 0, 0, 0, 293, 294, 295, 0, 0, 0, 0, 0, 0, 0, 0, 0, 0, 0, 0, 212, 213, 214, 215, 0, 0, 0, 0, 0, 0, 0, 0, 0, 0, 0, 0, 232, 233, 234, 235, 0, 0, 0, 0, 0, 0, 0, 0, 0, 0, 0, 0, 252, 253, 254, 255, 0, 0, 0, 0, 0, 0, 0, 0, 0, 0, 0, 0, 272, 273, 274, 275, 0, 0, 0, 0, 0, 213, 214, 215, 216, 0, 0, 0, 292, 293, 294, 295, 0, 0, 0, 0, 0, 233, 234, 235, 236, 0, 0, 0, 312, 313, 314, 315, 0, 0, 0, 0, 0, 253, 254, 255, 256, 0, 0, 0, 0, 0, 0, 0, 0, 0, 0, 0, 0, 273, 274, 275, 276, 0, 0, 0, 0, 0, 0, 0, 0, 0, 0, 0, 0, 293, 294, 295, 296, 0, 0, 0, 0, 0, 0, 1474],
                 "height":16,
                 "width":16,
                 "x":16,
                 "y":0
                }, 
                {
                 "data":[0, 0, 0, 0, 0, 273, 274, 275, 276, 0, 0, 0, 0, 0, 233, 234, 0, 0, 0, 0, 0, 293, 294, 295, 296, 0, 0, 0, 0, 0, 253, 254, 216, 0, 0, 0, 0, 313, 314, 315, 316, 0, 0, 0, 0, 0, 273, 274, 236, 0, 0, 0, 0, 0, 0, 0, 0, 0, 0, 0, 0, 0, 293, 294, 256, 0, 0, 0, 0, 0, 212, 213, 214, 215, 216, 0, 0, 0, 313, 314, 276, 0, 0, 0, 0, 0, 232, 233, 234, 235, 236, 0, 0, 0, 0, 0, 296, 0, 0, 0, 0, 0, 252, 253, 254, 255, 256, 0, 0, 0, 0, 0, 216, 0, 0, 213, 214, 215, 216, 273, 274, 275, 276, 0, 0, 0, 0, 0, 236, 0, 0, 233, 234, 235, 236, 293, 294, 295, 296, 0, 0, 0, 0, 0, 256, 0, 0, 253, 254, 255, 256, 313, 314, 315, 316, 0, 0, 0, 0, 0, 276, 0, 0, 273, 274, 275, 276, 0, 0, 0, 0, 0, 0, 0, 0, 0, 296, 0, 0, 293, 294, 295, 296, 0, 0, 0, 0, 0, 0, 0, 0, 0, 316, 0, 0, 313, 314, 315, 316, 0, 0, 0, 0, 0, 0, 212, 213, 214, 0, 0, 0, 0, 0, 212, 213, 214, 215, 216, 0, 0, 0, 232, 233, 234, 1455, 1456, 0, 0, 0, 232, 233, 234, 235, 236, 0, 0, 0, 252, 253, 254, 1475, 1476, 1477, 0, 0, 252, 253, 254, 255, 256, 0, 0, 0, 272, 273, 274],
                 "height":16,
                 "width":16,
                 "x":32,
                 "y":0
                }, 
                {
                 "data":[235, 236, 0, 0, 0, 0, 0, 0, 0, 0, 0, 0, 0, 0, 0, 0, 255, 256, 0, 0, 0, 0, 0, 0, 0, 0, 0, 0, 0, 0, 0, 0, 275, 276, 0, 0, 0, 0, 0, 0, 0, 0, 0, 0, 0, 0, 0, 0, 295, 296, 0, 0, 0, 0, 0, 0, 0, 0, 0, 0, 0, 0, 0, 0, 315, 316, 0, 0, 0, 0, 0, 0, 0, 0, 0, 0, 0, 0, 0, 0, 0, 0, 0, 0, 0, 0, 0, 0, 0, 0, 0, 0, 0, 0, 0, 0, 0, 0, 212, 213, 214, 215, 216, 0, 0, 0, 0, 0, 0, 0, 0, 0, 0, 0, 232, 233, 234, 235, 236, 0, 0, 0, 0, 0, 0, 0, 0, 0, 0, 0, 252, 253, 254, 255, 256, 0, 0, 0, 0, 0, 0, 0, 0, 0, 0, 0, 272, 273, 274, 275, 276, 0, 0, 0, 0, 0, 0, 0, 0, 0, 0, 0, 292, 293, 294, 295, 296, 0, 0, 0, 0, 0, 0, 0, 0, 0, 0, 0, 312, 313, 314, 315, 316, 0, 0, 0, 0, 0, 0, 0, 0, 0, 215, 216, 0, 0, 0, 0, 0, 0, 0, 0, 0, 0, 0, 0, 0, 0, 235, 236, 0, 0, 0, 0, 0, 0, 0, 0, 0, 0, 0, 0, 0, 0, 255, 256, 0, 0, 0, 0, 0, 0, 0, 0, 0, 0, 0, 0, 0, 0, 275, 276, 0, 0, 0, 0, 0, 0, 0, 0, 0, 0, 0, 0, 0, 0],
                 "height":16,
                 "width":16,
                 "x":48,
                 "y":0
                }, 
                {
                 "data":[0, 0, 0, 0, 0, 0, 0, 0, 0, 0, 213, 214, 215, 216, 0, 0, 0, 0, 0, 0, 0, 0, 0, 0, 0, 0, 233, 234, 235, 236, 0, 0, 0, 0, 0, 0, 0, 0, 0, 0, 0, 0, 253, 254, 255, 256, 0, 0, 0, 0, 0, 0, 0, 0, 0, 0, 0, 0, 273, 274, 275, 276, 0, 0, 0, 0, 0, 0, 0, 0, 0, 0, 0, 0, 293, 294, 295, 296, 0, 0, 0, 0, 0, 0, 0, 0, 0, 0, 0, 0, 313, 314, 315, 316, 0, 0, 0, 0, 0, 0, 0, 0, 0, 0, 0, 0, 0, 0, 0, 0, 0, 0, 0, 213, 214, 215, 216, 0, 0, 0, 0, 0, 0, 0, 0, 0, 0, 0, 0, 233, 234, 235, 236, 0, 0, 0, 0, 0, 0, 0, 0, 0, 0, 0, 0, 253, 254, 255, 256, 0, 0, 0, 0, 0, 0, 0, 0, 213, 214, 215, 0, 273, 274, 275, 276, 0, 0, 0, 0, 0, 0, 0, 0, 233, 234, 235, 0, 293, 294, 295, 296, 0, 0, 0, 0, 0, 0, 0, 0, 253, 254, 255, 0, 313, 314, 315, 316, 0, 0, 0, 0, 0, 0, 0, 0, 273, 274, 275, 0, 0, 0, 0, 0, 0, 0, 0, 0, 0, 0, 0, 0, 293, 294, 295, 0, 0, 0, 0, 0, 0, 0, 0, 0, 0, 0, 0, 0, 313, 314, 315, 0, 0, 0, 0, 0, 0, 0, 0, 0, 0, 0, 0, 0, 0, 0, 0],
                 "height":16,
                 "width":16,
                 "x":-16,
                 "y":16
                }, 
                {
                 "data":[0, 0, 0, 0, 0, 0, 0, 0, 0, 0, 0, 233, 234, 235, 236, 0, 0, 0, 0, 0, 0, 0, 0, 0, 0, 0, 0, 253, 254, 255, 256, 0, 0, 0, 0, 0, 0, 0, 0, 0, 0, 0, 0, 273, 274, 275, 276, 0, 0, 0, 0, 0, 0, 0, 0, 0, 0, 0, 0, 293, 294, 295, 296, 0, 0, 0, 0, 0, 0, 0, 0, 0, 0, 0, 0, 313, 314, 315, 316, 0, 0, 0, 0, 0, 0, 0, 0, 0, 0, 0, 0, 0, 0, 0, 0, 0, 0, 0, 0, 0, 0, 0, 0, 0, 0, 0, 0, 0, 0, 0, 0, 0, 0, 0, 0, 0, 0, 0, 0, 0, 0, 0, 0, 0, 0, 0, 0, 0, 0, 0, 0, 0, 0, 0, 0, 0, 0, 0, 0, 0, 0, 0, 0, 0, 216, 0, 0, 0, 0, 0, 0, 0, 0, 0, 0, 0, 0, 0, 0, 0, 236, 0, 0, 0, 0, 0, 0, 0, 0, 0, 0, 213, 214, 215, 216, 0, 256, 0, 0, 0, 0, 0, 0, 0, 0, 0, 0, 233, 234, 235, 236, 0, 276, 0, 0, 0, 0, 0, 0, 0, 0, 0, 0, 253, 254, 255, 256, 0, 296, 0, 0, 0, 0, 0, 0, 0, 0, 0, 0, 273, 274, 275, 276, 0, 316, 0, 0, 0, 0, 0, 0, 0, 0, 0, 0, 293, 294, 295, 296, 0, 0, 0, 0, 0, 0, 0, 0, 0, 0, 0, 0, 313, 314, 315, 316, 0],
                 "height":16,
                 "width":16,
                 "x":0,
                 "y":16
                }, 
                {
                 "data":[0, 0, 0, 0, 0, 313, 314, 315, 316, 0, 0, 0, 0, 0, 1493, 1494, 0, 0, 0, 0, 0, 0, 0, 0, 0, 0, 0, 0, 0, 1512, 1513, 1514, 0, 0, 0, 0, 0, 0, 0, 0, 0, 0, 0, 0, 0, 1532, 1533, 1534, 0, 0, 0, 0, 0, 0, 0, 0, 0, 0, 0, 0, 0, 1552, 1553, 1554, 0, 0, 0, 0, 0, 0, 0, 0, 0, 0, 0, 0, 0, 1572, 1573, 1574, 0, 0, 0, 0, 0, 0, 0, 0, 0, 0, 0, 0, 0, 1592, 1593, 1594, 0, 0, 0, 0, 0, 0, 0, 0, 0, 0, 0, 0, 0, 1612, 1613, 1614, 0, 0, 0, 0, 0, 0, 0, 0, 0, 0, 0, 0, 0, 1632, 1633, 1634, 0, 0, 0, 0, 0, 0, 0, 0, 0, 0, 0, 0, 0, 0, 0, 0, 0, 0, 0, 0, 0, 0, 0, 0, 0, 0, 0, 0, 0, 0, 0, 0, 0, 0, 0, 0, 0, 0, 0, 0, 0, 0, 0, 0, 736, 737, 738, 739, 0, 0, 0, 0, 0, 213, 214, 215, 216, 0, 0, 0, 0, 0, 0, 0, 0, 0, 0, 0, 0, 233, 234, 235, 236, 0, 0, 0, 0, 0, 0, 0, 0, 0, 0, 0, 0, 253, 254, 255, 256, 0, 0, 0, 0, 0, 0, 0, 0, 0, 0, 0, 0, 273, 274, 275, 276, 0, 0, 0, 0, 0, 0, 0, 0, 0, 0, 0, 0, 293, 294, 295, 296, 0, 0, 0, 0, 0, 0, 0],
                 "height":16,
                 "width":16,
                 "x":16,
                 "y":16
                }, 
                {
                 "data":[1495, 1496, 1497, 1498, 0, 272, 273, 274, 275, 276, 0, 0, 0, 292, 293, 294, 1515, 1516, 1517, 1518, 1519, 292, 293, 294, 295, 296, 0, 0, 0, 312, 313, 314, 1535, 1536, 1537, 1538, 1539, 312, 313, 314, 315, 316, 0, 0, 0, 0, 0, 0, 1555, 1556, 1557, 1558, 1559, 0, 0, 0, 0, 0, 0, 0, 0, 0, 0, 0, 1575, 1576, 1577, 1578, 1579, 0, 0, 0, 0, 0, 0, 0, 0, 0, 0, 0, 1595, 1596, 1597, 1598, 1599, 0, 0, 0, 0, 0, 0, 0, 0, 0, 0, 0, 1615, 1616, 1617, 1618, 1619, 0, 0, 0, 61, 0, 61, 0, 61, 0, 0, 0, 1635, 1636, 1637, 1638, 1639, 0, 0, 0, 81, 0, 81, 0, 81, 0, 0, 0, 0, 0, 0, 1440, 0, 0, 0, 0, 101, 0, 101, 0, 101, 0, 0, 0, 0, 0, 0, 1460, 0, 0, 0, 0, 121, 0, 121, 0, 121, 0, 0, 0, 737, 738, 739, 1480, 0, 0, 0, 0, 0, 0, 0, 0, 0, 0, 0, 0, 0, 0, 0, 0, 0, 0, 0, 0, 0, 0, 0, 0, 0, 0, 0, 0, 0, 0, 0, 0, 0, 0, 0, 0, 61, 0, 61, 0, 61, 0, 0, 0, 0, 0, 0, 0, 0, 0, 0, 0, 81, 0, 81, 0, 81, 0, 0, 0, 0, 0, 0, 0, 0, 0, 0, 0, 101, 0, 101, 0, 101, 0, 0, 0, 0, 0, 0, 0, 0, 0, 0, 0, 121, 0, 121, 0, 121, 0, 0, 0],
                 "height":16,
                 "width":16,
                 "x":32,
                 "y":16
                }, 
                {
                 "data":[295, 296, 0, 0, 0, 0, 0, 0, 0, 0, 0, 0, 0, 0, 0, 0, 315, 316, 0, 0, 0, 0, 0, 0, 0, 0, 0, 0, 0, 0, 0, 0, 0, 0, 0, 0, 0, 0, 0, 0, 0, 0, 0, 0, 0, 0, 0, 0, 0, 0, 0, 0, 0, 0, 0, 0, 0, 0, 0, 0, 0, 0, 0, 0, 0, 0, 0, 0, 0, 0, 0, 0, 0, 0, 0, 0, 0, 0, 0, 0, 0, 0, 0, 0, 0, 0, 0, 0, 0, 0, 0, 0, 0, 0, 0, 0, 0, 0, 0, 0, 0, 0, 0, 0, 0, 0, 0, 0, 0, 0, 0, 0, 601, 602, 603, 0, 0, 0, 0, 0, 0, 0, 0, 0, 0, 0, 0, 0, 621, 622, 623, 0, 0, 0, 0, 0, 0, 0, 0, 0, 0, 0, 0, 0, 641, 642, 643, 0, 0, 0, 0, 0, 0, 0, 0, 0, 0, 0, 0, 0, 661, 662, 663, 617, 618, 619, 620, 0, 0, 0, 0, 0, 0, 0, 0, 0, 681, 682, 683, 637, 638, 639, 640, 0, 0, 0, 0, 0, 0, 0, 0, 0, 0, 0, 0, 657, 658, 659, 660, 0, 0, 0, 0, 0, 0, 0, 0, 0, 0, 0, 0, 677, 678, 679, 680, 0, 0, 0, 0, 0, 0, 0, 0, 0, 0, 0, 0, 697, 698, 699, 700, 0, 0, 0, 0, 0, 0, 0, 0, 0, 0, 0, 0, 717, 718, 719, 720, 0, 0, 0, 0, 0, 0, 0, 0, 0],
                 "height":16,
                 "width":16,
                 "x":48,
                 "y":16
                }, 
                {
                 "data":[0, 0, 0, 0, 0, 313, 314, 315, 316, 0, 0, 0, 0, 0, 0, 0, 0, 0, 0, 0, 0, 0, 0, 0, 0, 0, 0, 0, 0, 0, 0, 0, 0, 0, 0, 0, 0, 0, 0, 0, 0, 0, 0, 0, 0, 0, 0, 0, 0, 0, 0, 0, 0, 0, 0, 0, 0, 0, 0, 0, 0, 0, 0, 0, 0, 0, 0, 0, 0, 0, 0, 0, 0, 0, 0, 0, 0, 0, 0, 0, 0, 0, 0, 0, 0, 0, 0, 0, 0, 0, 0, 0, 0, 0, 0, 0, 0, 0, 0, 0, 0, 0, 0, 0, 0, 0, 0, 0, 0, 0, 0, 0, 0, 0, 0, 0, 0, 0, 0, 0, 0, 0, 0, 0, 0, 0, 0, 0, 0, 0, 0, 0, 0, 0, 0, 0, 0, 0, 0, 0, 0, 0, 0, 0, 0, 0, 0, 0, 0, 0, 0, 0, 0, 0, 0, 0, 0, 0, 0, 0, 0, 0, 0, 0, 0, 0, 0, 0, 0, 0, 0, 0, 0, 0, 0, 0, 0, 0, 0, 0, 0, 0, 0, 0, 0, 0, 0, 0, 0, 0, 0, 0, 0, 0, 0, 0, 0, 0, 0, 0, 0, 0, 0, 0, 0, 0, 0, 0, 0, 0, 0, 0, 0, 0, 0, 0, 0, 0, 0, 0, 0, 0, 0, 0, 0, 0, 0, 0, 0, 0, 0, 0, 0, 0, 0, 0, 0, 0, 0, 0, 0, 0, 0, 0, 0, 0, 0, 0, 0, 0, 0, 0, 0, 0, 0, 0],
                 "height":16,
                 "width":16,
                 "x":16,
                 "y":32
                }],
         "height":64,
         "id":2,
         "name":"collision",
         "opacity":1,
         "startx":-16,
         "starty":-16,
         "type":"tilelayer",
         "visible":true,
         "width":80,
         "x":0,
         "y":0
        }, 
        {
         "chunks":[
                {
                 "data":[0, 0, 0, 0, 0, 0, 0, 0, 0, 0, 0, 0, 0, 0, 0, 0, 0, 0, 0, 0, 0, 0, 0, 0, 0, 0, 0, 0, 0, 0, 0, 0, 0, 0, 0, 0, 0, 0, 0, 0, 0, 0, 0, 0, 0, 0, 0, 0, 0, 0, 0, 0, 0, 0, 0, 0, 0, 0, 0, 0, 0, 0, 0, 0, 0, 0, 0, 0, 0, 0, 0, 0, 0, 0, 0, 0, 0, 0, 0, 0, 0, 0, 0, 0, 0, 0, 0, 0, 0, 0, 0, 0, 0, 0, 0, 0, 0, 0, 0, 0, 0, 0, 0, 0, 0, 0, 0, 0, 0, 0, 0, 0, 0, 0, 0, 0, 0, 0, 0, 0, 0, 0, 0, 0, 0, 0, 0, 0, 0, 0, 0, 0, 0, 0, 0, 0, 0, 0, 0, 0, 0, 0, 0, 413, 0, 0, 0, 0, 0, 0, 0, 0, 0, 0, 0, 0, 0, 0, 0, 433, 0, 0, 0, 0, 0, 0, 0, 0, 0, 0, 0, 0, 0, 0, 0, 0, 0, 0, 0, 0, 0, 0, 0, 0, 0, 0, 0, 0, 0, 0, 0, 0, 0, 0, 0, 0, 0, 0, 0, 0, 0, 0, 0, 0, 0, 0, 0, 0, 0, 0, 0, 0, 0, 0, 0, 0, 0, 0, 0, 0, 0, 0, 0, 0, 0, 0, 0, 0, 0, 0, 0, 0, 0, 0, 0, 0, 0, 0, 0, 0, 0, 0, 0, 0, 0, 0, 0, 0, 0, 0, 0, 0, 0, 0, 0, 0],
                 "height":16,
                 "width":16,
                 "x":-16,
                 "y":0
                }, 
                {
                 "data":[0, 0, 0, 0, 0, 0, 0, 0, 0, 0, 0, 0, 0, 0, 0, 0, 0, 0, 0, 0, 0, 0, 0, 0, 0, 0, 0, 0, 0, 0, 0, 0, 0, 0, 0, 0, 0, 0, 0, 0, 569, 570, 574, 0, 0, 0, 0, 0, 0, 0, 0, 0, 0, 0, 0, 0, 589, 593, 594, 0, 0, 0, 0, 0, 0, 0, 0, 0, 0, 0, 0, 0, 0, 0, 0, 0, 0, 0, 0, 0, 0, 0, 0, 0, 0, 0, 0, 0, 0, 0, 0, 0, 0, 0, 0, 0, 374, 375, 376, 377, 378, 0, 0, 0, 0, 0, 0, 0, 0, 0, 0, 0, 394, 395, 396, 397, 398, 0, 0, 0, 0, 0, 0, 0, 0, 0, 0, 0, 414, 415, 416, 417, 418, 0, 0, 0, 0, 0, 0, 0, 0, 0, 0, 0, 434, 435, 436, 437, 438, 0, 0, 0, 0, 0, 0, 0, 0, 0, 0, 0, 454, 455, 456, 457, 458, 0, 0, 0, 0, 0, 0, 0, 0, 0, 0, 0, 413, 475, 476, 398, 478, 0, 0, 0, 0, 0, 0, 0, 0, 0, 0, 0, 413, 0, 0, 418, 0, 0, 0, 0, 0, 0, 0, 0, 0, 0, 0, 0, 413, 0, 0, 438, 0, 0, 0, 0, 0, 0, 0, 0, 0, 0, 0, 0, 413, 0, 0, 438, 0, 0, 0, 0, 0, 0, 0, 0, 0, 0, 0, 0, 413, 0, 0, 438, 0, 0, 0, 0, 0, 0, 0, 0, 0, 0, 0, 0],
                 "height":16,
                 "width":16,
                 "x":0,
                 "y":0
                }, 
                {
                 "data":[413, 0, 0, 438, 0, 0, 0, 0, 0, 0, 0, 0, 0, 0, 0, 0, 413, 0, 0, 438, 0, 0, 0, 0, 0, 0, 0, 0, 0, 0, 0, 0, 413, 0, 0, 438, 0, 0, 0, 0, 0, 0, 0, 0, 0, 0, 0, 0, 413, 0, 0, 438, 0, 0, 0, 0, 0, 0, 0, 0, 0, 0, 0, 0, 413, 0, 0, 438, 0, 0, 0, 0, 0, 0, 0, 0, 0, 0, 0, 0, 413, 0, 0, 438, 0, 0, 0, 0, 0, 0, 0, 0, 0, 0, 0, 0, 413, 0, 0, 438, 0, 0, 0, 0, 0, 0, 0, 0, 0, 0, 0, 0, 413, 0, 0, 438, 376, 376, 376, 376, 376, 376, 376, 376, 376, 376, 376, 376, 413, 0, 0, 0, 0, 0, 0, 0, 0, 0, 0, 0, 0, 0, 0, 0, 413, 0, 0, 0, 0, 0, 0, 0, 0, 0, 0, 0, 0, 0, 0, 0, 433, 476, 476, 476, 476, 476, 476, 476, 476, 476, 476, 476, 476, 476, 476, 476, 0, 0, 0, 0, 0, 0, 0, 0, 0, 0, 0, 0, 0, 0, 0, 0, 0, 0, 0, 0, 0, 0, 0, 0, 0, 0, 0, 0, 0, 0, 0, 0, 0, 0, 0, 0, 0, 0, 0, 0, 0, 0, 0, 0, 0, 0, 0, 0, 0, 0, 0, 0, 0, 0, 0, 0, 0, 0, 0, 0, 0, 0, 0, 0, 0, 0, 0, 0, 0, 0, 0, 0, 0, 0, 0, 0, 0, 0, 0, 0],
                 "height":16,
                 "width":16,
                 "x":0,
                 "y":16
                }, 
                {
                 "data":[0, 0, 0, 0, 0, 0, 0, 0, 0, 0, 0, 0, 0, 0, 0, 0, 0, 0, 0, 0, 0, 0, 0, 0, 0, 0, 0, 0, 0, 0, 0, 0, 0, 0, 0, 0, 0, 0, 0, 0, 0, 0, 0, 0, 0, 0, 0, 0, 0, 0, 0, 0, 0, 0, 0, 0, 0, 0, 0, 0, 0, 0, 0, 0, 0, 0, 0, 0, 0, 0, 0, 0, 0, 0, 0, 0, 0, 0, 0, 0, 0, 0, 0, 0, 0, 0, 0, 0, 0, 0, 0, 0, 0, 0, 0, 0, 0, 0, 0, 0, 0, 0, 0, 0, 0, 0, 0, 0, 0, 0, 0, 0, 376, 376, 376, 376, 376, 376, 376, 376, 376, 376, 376, 376, 376, 0, 0, 0, 0, 0, 0, 0, 0, 0, 0, 0, 0, 0, 0, 0, 0, 0, 0, 0, 0, 0, 0, 0, 0, 0, 0, 0, 0, 0, 0, 0, 0, 0, 0, 0, 476, 476, 476, 476, 476, 476, 476, 476, 476, 476, 476, 476, 476, 0, 0, 0, 0, 0, 0, 0, 0, 0, 0, 0, 0, 0, 0, 0, 0, 0, 0, 0, 0, 0, 0, 0, 0, 0, 0, 0, 0, 0, 0, 0, 0, 0, 0, 0, 0, 0, 0, 0, 0, 0, 0, 0, 0, 0, 0, 0, 0, 0, 0, 0, 0, 0, 0, 0, 0, 0, 0, 0, 0, 0, 0, 0, 0, 0, 0, 0, 0, 0, 0, 0, 0, 0, 0, 0, 0, 0, 0, 0, 0, 0, 0, 0],
                 "height":16,
                 "width":16,
                 "x":16,
                 "y":16
                }, 
                {
                 "data":[0, 0, 0, 0, 0, 0, 0, 0, 0, 0, 0, 0, 0, 0, 0, 0, 0, 0, 0, 0, 0, 0, 0, 0, 0, 0, 0, 0, 0, 0, 0, 0, 0, 0, 0, 0, 0, 0, 0, 0, 0, 0, 0, 0, 0, 0, 0, 0, 0, 0, 0, 0, 0, 0, 0, 0, 0, 0, 0, 0, 0, 0, 0, 0, 0, 0, 0, 0, 0, 0, 0, 0, 0, 0, 0, 0, 0, 0, 0, 0, 0, 0, 0, 0, 0, 0, 0, 0, 0, 0, 0, 0, 0, 0, 0, 0, 0, 0, 0, 0, 0, 0, 0, 0, 0, 0, 0, 0, 0, 0, 0, 0, 0, 0, 0, 1420, 0, 0, 0, 0, 0, 0, 0, 0, 0, 0, 0, 0, 0, 0, 0, 0, 0, 0, 0, 0, 0, 0, 0, 0, 0, 0, 0, 0, 0, 0, 0, 0, 0, 0, 0, 0, 0, 0, 0, 0, 0, 0, 0, 0, 0, 0, 0, 0, 0, 0, 0, 0, 0, 0, 0, 0, 0, 0, 0, 0, 0, 0, 0, 0, 0, 0, 0, 0, 0, 0, 0, 0, 0, 0, 0, 0, 0, 0, 0, 0, 0, 0, 0, 0, 0, 0, 0, 0, 0, 0, 0, 0, 0, 0, 0, 0, 0, 0, 0, 0, 0, 0, 0, 0, 0, 0, 0, 0, 0, 0, 0, 0, 0, 0, 0, 0, 0, 0, 0, 0, 0, 0, 0, 0, 0, 0, 0, 0, 0, 0, 0, 0, 0, 0, 0, 0, 0, 0, 0, 0],
                 "height":16,
                 "width":16,
                 "x":32,
                 "y":16
                }],
         "height":48,
         "id":3,
         "name":"overlay",
         "opacity":1,
         "startx":-16,
         "starty":-16,
         "type":"tilelayer",
         "visible":true,
         "width":64,
         "x":0,
         "y":0
        }],
 "nextlayerid":4,
 "nextobjectid":1,
 "orientation":"orthogonal",
 "renderorder":"right-down",
 "tiledversion":"1.3.1",
 "tileheight":16,
 "tilesets":[
        {
         "columns":20,
         "firstgid":1,
         "image":"..\/img\/tilesheet.png",
         "imageheight":1568,
         "imagewidth":320,
         "margin":0,
         "name":"zoltan-town",
         "spacing":0,
         "tilecount":1960,
         "tileheight":16,
         "tilewidth":16
        }],
 "tilewidth":16,
 "type":"map",
 "version":1.2,
 "width":200
}